# Blender v2.79 (sub 0) OBJ File: 'desk.blend'
# www.blender.org
mtllib desk.mtl
o Cube
v -0.300000 0.930000 -1.000000
v -0.300000 0.930000 0.500000
v -1.000000 0.930000 0.500000
v -1.000000 0.930000 -1.000000
v -0.300000 1.000000 -0.999999
v -0.300001 1.000000 0.500001
v -1.000000 1.000000 0.500000
v -1.000000 1.000000 -1.000000
v -0.300000 0.930000 0.420000
v -1.000000 0.930000 0.420000
v -0.380000 0.930000 0.420000
v -0.920000 0.930000 0.420000
v -0.380000 0.930000 -1.000000
v -0.300000 0.930000 -0.920000
v -0.380000 0.930000 0.500000
v -0.920000 0.930000 0.500000
v -0.920000 0.930000 -0.920000
v -0.380000 0.930000 -0.920000
v -1.000000 0.930000 -0.920000
v -0.920000 0.930000 -0.920000
v -0.920000 0.930000 -1.000000
v -0.300000 0.930000 0.420000
v -0.300000 0.930000 0.500000
v -1.000000 0.930000 0.500000
v -1.000000 0.930000 0.420000
v -0.300000 0.930000 -1.000000
v -0.380000 0.930000 -1.000000
v -0.920000 0.930000 0.420000
v -0.380000 0.930000 0.500000
v -0.920000 0.930000 0.500000
v -0.380000 0.930000 0.420000
v -1.000000 0.930000 -0.920000
v -1.000000 0.930000 -1.000000
v -0.920000 0.930000 -1.000000
v -0.920000 0.930000 -0.920000
v -0.380000 0.930000 -0.920000
v -0.300000 0.930000 -0.920000
v -0.300000 0.000000 0.420000
v -0.300000 0.000000 0.500000
v -1.000000 0.000000 0.500000
v -1.000000 0.000000 0.420000
v -0.300000 0.000000 -1.000000
v -0.380000 0.000000 -1.000000
v -0.920000 0.000000 0.420000
v -0.380000 0.000000 0.500000
v -0.920000 0.000000 0.500000
v -0.380000 0.000000 0.420000
v -1.000000 0.000000 -0.920000
v -1.000000 0.000000 -1.000000
v -0.920000 0.000000 -1.000000
v -0.920000 0.000000 -0.920000
v -0.380000 0.000000 -0.920000
v -0.300000 0.000000 -0.920000
vn 0.0000 -1.0000 -0.0000
vn 0.0000 1.0000 0.0000
vn 1.0000 0.0000 0.0000
vn -0.0000 -0.0000 1.0000
vn -1.0000 -0.0000 -0.0000
vn 0.0000 0.0000 -1.0000
usemtl Material
s off
f 1//1 9//1 2//1 3//1 10//1 4//1 13//1
f 5//2 8//2 7//2 6//2
f 1//3 5//3 6//3 2//3 9//3
f 2//4 6//4 7//4 3//4
f 3//5 7//5 8//5 4//5 10//5
f 5//6 1//6 13//6 4//6 8//6
f 13//4 1//4 26//4 27//4
f 19//4 4//4 33//4 32//4
f 3//4 10//4 25//4 24//4
f 11//4 9//4 22//4 31//4
f 31//6 22//6 38//6 47//6
f 26//3 37//3 53//3 42//3
f 22//3 23//3 39//3 38//3
f 29//5 31//5 47//5 45//5
f 4//4 21//4 34//4 33//4
f 9//4 2//4 23//4 22//4
f 10//4 12//4 28//4 25//4
f 21//4 20//4 35//4 34//4
f 2//4 15//4 29//4 23//4
f 20//4 19//4 32//4 35//4
f 16//4 3//4 24//4 30//4
f 18//4 13//4 27//4 36//4
f 12//4 16//4 30//4 28//4
f 14//4 18//4 36//4 37//4
f 15//4 11//4 31//4 29//4
f 1//4 14//4 37//4 26//4
f 46//1 40//1 41//1 44//1
f 38//1 39//1 45//1 47//1
f 48//1 49//1 50//1 51//1
f 43//1 42//1 53//1 52//1
f 24//5 25//5 41//5 40//5
f 32//5 33//5 49//5 48//5
f 27//6 26//6 42//6 43//6
f 33//6 34//6 50//6 49//6
f 25//6 28//6 44//6 41//6
f 34//3 35//3 51//3 50//3
f 23//4 29//4 45//4 39//4
f 35//4 32//4 48//4 51//4
f 30//4 24//4 40//4 46//4
f 36//5 27//5 43//5 52//5
f 28//3 30//3 46//3 44//3
f 37//4 36//4 52//4 53//4
